{"failedCount":0,"prefixedPath":"src\/test\/java\/examples\/reqres\/reqres.feature","packageQualifiedName":"src.test.java.examples.reqres.reqres","loopIndex":-1,"relativePath":"src\/test\/java\/examples\/reqres\/reqres.feature","scenarioResults":[{"sectionIndex":12,"stepResults":[{"result":{"nanos":88100,"millis":0.0881,"status":"passed"},"step":{"background":true,"line":4,"prefix":"Given","index":0,"text":"url base_url"},"stepLog":"13:00:20.352 karate.env system property was: null \n"},{"result":{"nanos":1111200,"millis":1.1112,"status":"passed"},"step":{"line":173,"prefix":"Given","index":0,"text":"url \"https:\/\/reqres.in\/api\/users?page=2\""}},{"result":{"nanos":1897059100,"millis":1897.0591,"status":"passed"},"step":{"line":174,"prefix":"When","index":1,"text":"method get"},"stepLog":"13:00:21.541 request:\n1 > GET https:\/\/reqres.in\/api\/users?page=2\n1 > Host: reqres.in\n1 > Connection: Keep-Alive\n1 > User-Agent: Apache-HttpClient\/4.5.13 (Java\/1.8.0_251)\n1 > Accept-Encoding: gzip,deflate\n\n\n13:00:22.329 response time in milliseconds: 721\n1 < 200\n1 < Date: Mon, 11 Oct 2021 07:30:22 GMT\n1 < Content-Type: application\/json; charset=utf-8\n1 < Transfer-Encoding: chunked\n1 < Connection: keep-alive\n1 < x-powered-by: Express\n1 < access-control-allow-origin: *\n1 < etag: W\/\"406-ut0vzoCuidvyMf8arZpMpJ6ZRDw\"\n1 < via: 1.1 vegur\n1 < Cache-Control: max-age=14400\n1 < CF-Cache-Status: HIT\n1 < Age: 2584\n1 < Expect-CT: max-age=604800, report-uri=\"https:\/\/report-uri.cloudflare.com\/cdn-cgi\/beacon\/expect-ct\"\n1 < Report-To: {\"endpoints\":[{\"url\":\"https:\\\/\\\/a.nel.cloudflare.com\\\/report\\\/v3?s=B1tFqDNxVR0ZGmiloY8ZWrO5X4NtgKEMklSVOoEfwvrHzD8F7%2FDsCo%2BFXRWBR2bsItpLQHhUOxtvpnCRdcJ%2B66xlWZnR2DTqKmZdIJrg1QlDn59nmsmyx93gnUE%3D\"}],\"group\":\"cf-nel\",\"max_age\":604800}\n1 < NEL: {\"success_fraction\":0,\"report_to\":\"cf-nel\",\"max_age\":604800}\n1 < Vary: Accept-Encoding\n1 < Server: cloudflare\n1 < CF-RAY: 69c661f7da86321e-BOM\n1 < alt-svc: h3=\":443\"; ma=86400, h3-29=\":443\"; ma=86400, h3-28=\":443\"; ma=86400, h3-27=\":443\"; ma=86400\n{\"per_page\":6,\"total\":12,\"data\":[{\"last_name\":\"Lawson\",\"id\":7,\"avatar\":\"https:\\\/\\\/reqres.in\\\/img\\\/faces\\\/7-image.jpg\",\"first_name\":\"Michael\",\"email\":\"michael.lawson@reqres.in\"},{\"last_name\":\"Ferguson\",\"id\":8,\"avatar\":\"https:\\\/\\\/reqres.in\\\/img\\\/faces\\\/8-image.jpg\",\"first_name\":\"Lindsay\",\"email\":\"lindsay.ferguson@reqres.in\"},{\"last_name\":\"Funke\",\"id\":9,\"avatar\":\"https:\\\/\\\/reqres.in\\\/img\\\/faces\\\/9-image.jpg\",\"first_name\":\"Tobias\",\"email\":\"tobias.funke@reqres.in\"},{\"last_name\":\"Fields\",\"id\":10,\"avatar\":\"https:\\\/\\\/reqres.in\\\/img\\\/faces\\\/10-image.jpg\",\"first_name\":\"Byron\",\"email\":\"byron.fields@reqres.in\"},{\"last_name\":\"Edwards\",\"id\":11,\"avatar\":\"https:\\\/\\\/reqres.in\\\/img\\\/faces\\\/11-image.jpg\",\"first_name\":\"George\",\"email\":\"george.edwards@reqres.in\"},{\"last_name\":\"Howell\",\"id\":12,\"avatar\":\"https:\\\/\\\/reqres.in\\\/img\\\/faces\\\/12-image.jpg\",\"first_name\":\"Rachel\",\"email\":\"rachel.howell@reqres.in\"}],\"page\":2,\"total_pages\":2,\"support\":{\"text\":\"To keep ReqRes free, contributions towards server costs are appreciated!\",\"url\":\"https:\\\/\\\/reqres.in\\\/#support-heading\"}}\n"},{"result":{"nanos":27200,"millis":0.0272,"status":"passed"},"step":{"line":175,"prefix":"Then","index":2,"text":"status 200"}},{"result":{"nanos":7033700,"millis":7.0337,"status":"passed"},"step":{"line":176,"prefix":"Then","index":3,"text":"print response"},"stepLog":"13:00:22.339 [print] {\n  \"per_page\": 6,\n  \"total\": 12,\n  \"data\": [\n    {\n      \"last_name\": \"Lawson\",\n      \"id\": 7,\n      \"avatar\": \"https:\/\/reqres.in\/img\/faces\/7-image.jpg\",\n      \"first_name\": \"Michael\",\n      \"email\": \"michael.lawson@reqres.in\"\n    },\n    {\n      \"last_name\": \"Ferguson\",\n      \"id\": 8,\n      \"avatar\": \"https:\/\/reqres.in\/img\/faces\/8-image.jpg\",\n      \"first_name\": \"Lindsay\",\n      \"email\": \"lindsay.ferguson@reqres.in\"\n    },\n    {\n      \"last_name\": \"Funke\",\n      \"id\": 9,\n      \"avatar\": \"https:\/\/reqres.in\/img\/faces\/9-image.jpg\",\n      \"first_name\": \"Tobias\",\n      \"email\": \"tobias.funke@reqres.in\"\n    },\n    {\n      \"last_name\": \"Fields\",\n      \"id\": 10,\n      \"avatar\": \"https:\/\/reqres.in\/img\/faces\/10-image.jpg\",\n      \"first_name\": \"Byron\",\n      \"email\": \"byron.fields@reqres.in\"\n    },\n    {\n      \"last_name\": \"Edwards\",\n      \"id\": 11,\n      \"avatar\": \"https:\/\/reqres.in\/img\/faces\/11-image.jpg\",\n      \"first_name\": \"George\",\n      \"email\": \"george.edwards@reqres.in\"\n    },\n    {\n      \"last_name\": \"Howell\",\n      \"id\": 12,\n      \"avatar\": \"https:\/\/reqres.in\/img\/faces\/12-image.jpg\",\n      \"first_name\": \"Rachel\",\n      \"email\": \"rachel.howell@reqres.in\"\n    }\n  ],\n  \"page\": 2,\n  \"total_pages\": 2,\n  \"support\": {\n    \"text\": \"To keep ReqRes free, contributions towards server costs are appreciated!\",\n    \"url\": \"https:\/\/reqres.in\/#support-heading\"\n  }\n}\n \n"},{"result":{"nanos":32124600,"millis":32.1246,"status":"passed"},"step":{"line":177,"prefix":"And","index":4,"text":"match $ == {\"page\":2,\"per_page\":6,\"total\":12,\"total_pages\":2,\"data\":[{\"id\":7,\"email\":\"michael.lawson@reqres.in\",\"first_name\":\"Michael\",\"last_name\":\"Lawson\",\"avatar\":\"https:\/\/reqres.in\/img\/faces\/7-image.jpg\"},{\"id\":8,\"email\":\"lindsay.ferguson@reqres.in\",\"first_name\":\"Lindsay\",\"last_name\":\"Ferguson\",\"avatar\":\"https:\/\/reqres.in\/img\/faces\/8-image.jpg\"},{\"id\":9,\"email\":\"tobias.funke@reqres.in\",\"first_name\":\"Tobias\",\"last_name\":\"Funke\",\"avatar\":\"https:\/\/reqres.in\/img\/faces\/9-image.jpg\"},{\"id\":10,\"email\":\"byron.fields@reqres.in\",\"first_name\":\"Byron\",\"last_name\":\"Fields\",\"avatar\":\"https:\/\/reqres.in\/img\/faces\/10-image.jpg\"},{\"id\":11,\"email\":\"george.edwards@reqres.in\",\"first_name\":\"George\",\"last_name\":\"Edwards\",\"avatar\":\"https:\/\/reqres.in\/img\/faces\/11-image.jpg\"},{\"id\":12,\"email\":\"rachel.howell@reqres.in\",\"first_name\":\"Rachel\",\"last_name\":\"Howell\",\"avatar\":\"https:\/\/reqres.in\/img\/faces\/12-image.jpg\"}],\"support\":{\"url\":\"https:\/\/reqres.in\/#support-heading\",\"text\":\"To keep ReqRes free, contributions towards server costs are appreciated!\"}}"}}],"executorName":"main","line":172,"name":"list users get request error for","description":"","durationMillis":1937.4439,"startTime":1633937419997,"failed":false,"refId":"[13:172]","endTime":1633937422371,"exampleIndex":-1}],"callDepth":0,"name":"reqres api test cases","description":"","resultDate":"2021-10-11 01:00:22 PM","durationMillis":1937.4439,"passedCount":1}