{"failedCount":0,"prefixedPath":"classpath:examples\/reqres\/reqres.feature","packageQualifiedName":"examples.reqres.reqres","loopIndex":-1,"relativePath":"examples\/reqres\/reqres.feature","scenarioResults":[{"sectionIndex":0,"stepResults":[{"result":{"nanos":6366300,"millis":6.3663,"status":"passed"},"step":{"background":true,"line":4,"prefix":"Given","index":0,"text":"url 'https:\/\/reqres.in\/api'"},"stepLog":"20:47:01.320 karate.env system property was: null \n"},{"result":{"nanos":11614100,"millis":11.6141,"status":"passed"},"step":{"line":7,"prefix":"Given","index":0,"text":"path '\/users\/2'"}},{"result":{"nanos":1879345800,"millis":1879.3458,"status":"passed"},"step":{"line":8,"prefix":"When","index":1,"text":"method get"},"stepLog":"20:47:02.691 request:\n1 > GET https:\/\/reqres.in\/api\/users\/2\n1 > Host: reqres.in\n1 > Connection: Keep-Alive\n1 > User-Agent: Apache-HttpClient\/4.5.13 (Java\/11.0.10)\n1 > Accept-Encoding: gzip,deflate\n\n\n20:47:03.315 response time in milliseconds: 619\n1 < 200\n1 < Date: Mon, 21 Jun 2021 15:17:02 GMT\n1 < Content-Type: application\/json; charset=utf-8\n1 < Transfer-Encoding: chunked\n1 < Connection: keep-alive\n1 < X-Powered-By: Express\n1 < Access-Control-Allow-Origin: *\n1 < Etag: W\/\"118-pbdwwFo9SKNhD3Lx5iHJyngpq00\"\n1 < Via: 1.1 vegur\n1 < Cache-Control: max-age=14400\n1 < CF-Cache-Status: HIT\n1 < Age: 5445\n1 < cf-request-id: 0ad0be8ff000000eadbe2a5000000001\n1 < Expect-CT: max-age=604800, report-uri=\"https:\/\/report-uri.cloudflare.com\/cdn-cgi\/beacon\/expect-ct\"\n1 < Report-To: {\"endpoints\":[{\"url\":\"https:\\\/\\\/a.nel.cloudflare.com\\\/report\\\/v2?s=sD1Ef8rg81sdRV709AV44IZ4SOo7JBlq91%2Bw7INnp6e990Yso%2FllenU026gY81pBA8jh5l4oFCahpkmWt6hF%2BBI1SLoAjsEWxc6fW%2FXkwswFW9AGYR0L\"}],\"group\":\"cf-nel\",\"max_age\":604800}\n1 < NEL: {\"report_to\":\"cf-nel\",\"max_age\":604800}\n1 < Vary: Accept-Encoding\n1 < Server: cloudflare\n1 < CF-RAY: 662e3393190a0ead-BOM\n1 < alt-svc: h3-27=\":443\"; ma=86400, h3-28=\":443\"; ma=86400, h3-29=\":443\"; ma=86400, h3=\":443\"; ma=86400\n{\"data\":{\"last_name\":\"Weaver\",\"id\":2,\"avatar\":\"https:\\\/\\\/reqres.in\\\/img\\\/faces\\\/2-image.jpg\",\"first_name\":\"Janet\",\"email\":\"janet.weaver@reqres.in\"},\"support\":{\"text\":\"To keep ReqRes free, contributions towards server costs are appreciated!\",\"url\":\"https:\\\/\\\/reqres.in\\\/#support-heading\"}}\n"},{"result":{"nanos":36500,"millis":0.0365,"status":"passed"},"step":{"line":9,"prefix":"Then","index":2,"text":"status 200"}},{"result":{"nanos":2321400,"millis":2.3214,"status":"passed"},"step":{"line":10,"prefix":"Then","index":3,"text":"print response"},"stepLog":"20:47:03.320 [print] {\n  \"data\": {\n    \"last_name\": \"Weaver\",\n    \"id\": 2,\n    \"avatar\": \"https:\/\/reqres.in\/img\/faces\/2-image.jpg\",\n    \"first_name\": \"Janet\",\n    \"email\": \"janet.weaver@reqres.in\"\n  },\n  \"support\": {\n    \"text\": \"To keep ReqRes free, contributions towards server costs are appreciated!\",\n    \"url\": \"https:\/\/reqres.in\/#support-heading\"\n  }\n}\n \n"},{"result":{"nanos":27133400,"millis":27.1334,"status":"passed"},"step":{"line":11,"prefix":"And","index":4,"text":"match $ == {\"data\":{\"id\":2,\"email\":\"janet.weaver@reqres.in\",\"first_name\":\"Janet\",\"last_name\":\"Weaver\",\"avatar\":\"https:\/\/reqres.in\/img\/faces\/2-image.jpg\"},\"support\":{\"url\":\"https:\/\/reqres.in\/#support-heading\",\"text\":\"To keep ReqRes free, contributions towards server costs are appreciated!\"}}"}}],"executorName":"pool-1-thread-3","line":6,"name":"single user get request","description":"","durationMillis":1926.8175,"startTime":1624288621204,"failed":false,"refId":"[1:6]","endTime":1624288623348,"exampleIndex":-1},{"sectionIndex":1,"stepResults":[{"result":{"nanos":1151100,"millis":1.1511,"status":"passed"},"step":{"background":true,"line":4,"prefix":"Given","index":0,"text":"url 'https:\/\/reqres.in\/api'"},"stepLog":"20:47:01.321 karate.env system property was: null \n"},{"result":{"nanos":29146600,"millis":29.1466,"status":"passed"},"step":{"line":14,"prefix":"Given","index":0,"text":"path '\/users?page=2'"}},{"result":{"nanos":1866992000,"millis":1866.992,"status":"passed"},"step":{"line":15,"prefix":"When","index":1,"text":"method get"},"stepLog":"20:47:02.691 request:\n1 > GET https:\/\/reqres.in\/api\/users?page=2\n1 > Host: reqres.in\n1 > Connection: Keep-Alive\n1 > User-Agent: Apache-HttpClient\/4.5.13 (Java\/11.0.10)\n1 > Accept-Encoding: gzip,deflate\n\n\n20:47:03.315 response time in milliseconds: 619\n1 < 200\n1 < Date: Mon, 21 Jun 2021 15:17:02 GMT\n1 < Content-Type: application\/json; charset=utf-8\n1 < Transfer-Encoding: chunked\n1 < Connection: keep-alive\n1 < X-Powered-By: Express\n1 < Access-Control-Allow-Origin: *\n1 < Etag: W\/\"406-ut0vzoCuidvyMf8arZpMpJ6ZRDw\"\n1 < Via: 1.1 vegur\n1 < Cache-Control: max-age=14400\n1 < CF-Cache-Status: HIT\n1 < Age: 4770\n1 < cf-request-id: 0ad0be8fef00002e2826065000000001\n1 < Expect-CT: max-age=604800, report-uri=\"https:\/\/report-uri.cloudflare.com\/cdn-cgi\/beacon\/expect-ct\"\n1 < Report-To: {\"endpoints\":[{\"url\":\"https:\\\/\\\/a.nel.cloudflare.com\\\/report\\\/v2?s=W8DCy0dirQp0InZG9mIL3PT6oJXVPeBZnRlAB4bc0x3dq%2FciFTcWCows1qWTJzqU8rKmPI0Gc64BvXKdk5qLihV9KWGqKq8jUQoouxxfKPcRCU%2BmwleS\"}],\"group\":\"cf-nel\",\"max_age\":604800}\n1 < NEL: {\"report_to\":\"cf-nel\",\"max_age\":604800}\n1 < Vary: Accept-Encoding\n1 < Server: cloudflare\n1 < CF-RAY: 662e33931e292e28-BOM\n1 < alt-svc: h3-27=\":443\"; ma=86400, h3-28=\":443\"; ma=86400, h3-29=\":443\"; ma=86400, h3=\":443\"; ma=86400\n{\"per_page\":6,\"total\":12,\"data\":[{\"last_name\":\"Lawson\",\"id\":7,\"avatar\":\"https:\\\/\\\/reqres.in\\\/img\\\/faces\\\/7-image.jpg\",\"first_name\":\"Michael\",\"email\":\"michael.lawson@reqres.in\"},{\"last_name\":\"Ferguson\",\"id\":8,\"avatar\":\"https:\\\/\\\/reqres.in\\\/img\\\/faces\\\/8-image.jpg\",\"first_name\":\"Lindsay\",\"email\":\"lindsay.ferguson@reqres.in\"},{\"last_name\":\"Funke\",\"id\":9,\"avatar\":\"https:\\\/\\\/reqres.in\\\/img\\\/faces\\\/9-image.jpg\",\"first_name\":\"Tobias\",\"email\":\"tobias.funke@reqres.in\"},{\"last_name\":\"Fields\",\"id\":10,\"avatar\":\"https:\\\/\\\/reqres.in\\\/img\\\/faces\\\/10-image.jpg\",\"first_name\":\"Byron\",\"email\":\"byron.fields@reqres.in\"},{\"last_name\":\"Edwards\",\"id\":11,\"avatar\":\"https:\\\/\\\/reqres.in\\\/img\\\/faces\\\/11-image.jpg\",\"first_name\":\"George\",\"email\":\"george.edwards@reqres.in\"},{\"last_name\":\"Howell\",\"id\":12,\"avatar\":\"https:\\\/\\\/reqres.in\\\/img\\\/faces\\\/12-image.jpg\",\"first_name\":\"Rachel\",\"email\":\"rachel.howell@reqres.in\"}],\"page\":2,\"total_pages\":2,\"support\":{\"text\":\"To keep ReqRes free, contributions towards server costs are appreciated!\",\"url\":\"https:\\\/\\\/reqres.in\\\/#support-heading\"}}\n"},{"result":{"nanos":10800,"millis":0.0108,"status":"passed"},"step":{"line":16,"prefix":"Then","index":2,"text":"status 200"}},{"result":{"nanos":2406000,"millis":2.406,"status":"passed"},"step":{"line":17,"prefix":"Then","index":3,"text":"print response"},"stepLog":"20:47:03.320 [print] {\n  \"per_page\": 6,\n  \"total\": 12,\n  \"data\": [\n    {\n      \"last_name\": \"Lawson\",\n      \"id\": 7,\n      \"avatar\": \"https:\/\/reqres.in\/img\/faces\/7-image.jpg\",\n      \"first_name\": \"Michael\",\n      \"email\": \"michael.lawson@reqres.in\"\n    },\n    {\n      \"last_name\": \"Ferguson\",\n      \"id\": 8,\n      \"avatar\": \"https:\/\/reqres.in\/img\/faces\/8-image.jpg\",\n      \"first_name\": \"Lindsay\",\n      \"email\": \"lindsay.ferguson@reqres.in\"\n    },\n    {\n      \"last_name\": \"Funke\",\n      \"id\": 9,\n      \"avatar\": \"https:\/\/reqres.in\/img\/faces\/9-image.jpg\",\n      \"first_name\": \"Tobias\",\n      \"email\": \"tobias.funke@reqres.in\"\n    },\n    {\n      \"last_name\": \"Fields\",\n      \"id\": 10,\n      \"avatar\": \"https:\/\/reqres.in\/img\/faces\/10-image.jpg\",\n      \"first_name\": \"Byron\",\n      \"email\": \"byron.fields@reqres.in\"\n    },\n    {\n      \"last_name\": \"Edwards\",\n      \"id\": 11,\n      \"avatar\": \"https:\/\/reqres.in\/img\/faces\/11-image.jpg\",\n      \"first_name\": \"George\",\n      \"email\": \"george.edwards@reqres.in\"\n    },\n    {\n      \"last_name\": \"Howell\",\n      \"id\": 12,\n      \"avatar\": \"https:\/\/reqres.in\/img\/faces\/12-image.jpg\",\n      \"first_name\": \"Rachel\",\n      \"email\": \"rachel.howell@reqres.in\"\n    }\n  ],\n  \"page\": 2,\n  \"total_pages\": 2,\n  \"support\": {\n    \"text\": \"To keep ReqRes free, contributions towards server costs are appreciated!\",\n    \"url\": \"https:\/\/reqres.in\/#support-heading\"\n  }\n}\n \n"},{"result":{"nanos":20850400,"millis":20.8504,"status":"passed"},"step":{"line":18,"prefix":"And","index":4,"text":"match $ == {\"page\":2,\"per_page\":6,\"total\":12,\"total_pages\":2,\"data\":[{\"id\":7,\"email\":\"michael.lawson@reqres.in\",\"first_name\":\"Michael\",\"last_name\":\"Lawson\",\"avatar\":\"https:\/\/reqres.in\/img\/faces\/7-image.jpg\"},{\"id\":8,\"email\":\"lindsay.ferguson@reqres.in\",\"first_name\":\"Lindsay\",\"last_name\":\"Ferguson\",\"avatar\":\"https:\/\/reqres.in\/img\/faces\/8-image.jpg\"},{\"id\":9,\"email\":\"tobias.funke@reqres.in\",\"first_name\":\"Tobias\",\"last_name\":\"Funke\",\"avatar\":\"https:\/\/reqres.in\/img\/faces\/9-image.jpg\"},{\"id\":10,\"email\":\"byron.fields@reqres.in\",\"first_name\":\"Byron\",\"last_name\":\"Fields\",\"avatar\":\"https:\/\/reqres.in\/img\/faces\/10-image.jpg\"},{\"id\":11,\"email\":\"george.edwards@reqres.in\",\"first_name\":\"George\",\"last_name\":\"Edwards\",\"avatar\":\"https:\/\/reqres.in\/img\/faces\/11-image.jpg\"},{\"id\":12,\"email\":\"rachel.howell@reqres.in\",\"first_name\":\"Rachel\",\"last_name\":\"Howell\",\"avatar\":\"https:\/\/reqres.in\/img\/faces\/12-image.jpg\"}],\"support\":{\"url\":\"https:\/\/reqres.in\/#support-heading\",\"text\":\"To keep ReqRes free, contributions towards server costs are appreciated!\"}}"}}],"executorName":"pool-1-thread-4","line":13,"name":"list users get request","description":"","durationMillis":1920.5569,"startTime":1624288621197,"failed":false,"refId":"[2:13]","endTime":1624288623342,"exampleIndex":-1},{"sectionIndex":2,"stepResults":[{"result":{"nanos":919200,"millis":0.9192,"status":"passed"},"step":{"background":true,"line":4,"prefix":"Given","index":0,"text":"url 'https:\/\/reqres.in\/api'"},"stepLog":"20:47:01.321 karate.env system property was: null \n"},{"result":{"nanos":923900,"millis":0.9239,"status":"passed"},"step":{"line":22,"prefix":"*","index":0,"text":"def path = '\/users'"}},{"result":{"nanos":324174500,"millis":324.1745,"status":"passed"},"step":{"line":23,"prefix":"*","index":1,"text":"def payload = read('user.json')"}},{"result":{"nanos":11285500,"millis":11.2855,"status":"passed"},"step":{"line":24,"prefix":"Given","index":2,"text":"path path"}},{"result":{"nanos":34400,"millis":0.0344,"status":"passed"},"step":{"line":25,"prefix":"And","index":3,"text":"request payload"}},{"result":{"nanos":1850395600,"millis":1850.3956,"status":"passed"},"step":{"line":26,"prefix":"When","index":4,"text":"method post"},"stepLog":"20:47:02.694 request:\n1 > POST https:\/\/reqres.in\/api\/users\n1 > Content-Type: application\/json; charset=UTF-8\n1 > Content-Length: 34\n1 > Host: reqres.in\n1 > Connection: Keep-Alive\n1 > User-Agent: Apache-HttpClient\/4.5.13 (Java\/11.0.10)\n1 > Accept-Encoding: gzip,deflate\n{\"name\":\"morpheus\",\"job\":\"leader\"}\n\n20:47:03.609 response time in milliseconds: 914\n1 < 201\n1 < Date: Mon, 21 Jun 2021 15:17:02 GMT\n1 < Content-Type: application\/json; charset=utf-8\n1 < Content-Length: 84\n1 < Connection: keep-alive\n1 < X-Powered-By: Express\n1 < Access-Control-Allow-Origin: *\n1 < Etag: W\/\"54-pn5kc7Kzm1dX5U2lvTnBfg9UevI\"\n1 < Via: 1.1 vegur\n1 < CF-Cache-Status: DYNAMIC\n1 < cf-request-id: 0ad0be8ff200002e6adf3ac000000001\n1 < Expect-CT: max-age=604800, report-uri=\"https:\/\/report-uri.cloudflare.com\/cdn-cgi\/beacon\/expect-ct\"\n1 < Report-To: {\"endpoints\":[{\"url\":\"https:\\\/\\\/a.nel.cloudflare.com\\\/report\\\/v2?s=kF%2BTiMKrxij%2BHED90KJAcgAIw8oG1Jcuu8uUE%2F9fffZK5prsXggQog09ePjzhoKArEuFXdwhjeX1XmBpvrk0R9UkqbsAjcQk1LHary41H9Qh%2FzZ2lIZ4\"}],\"group\":\"cf-nel\",\"max_age\":604800}\n1 < NEL: {\"report_to\":\"cf-nel\",\"max_age\":604800}\n1 < Server: cloudflare\n1 < CF-RAY: 662e339319902e6a-BOM\n1 < alt-svc: h3-27=\":443\"; ma=86400, h3-28=\":443\"; ma=86400, h3-29=\":443\"; ma=86400, h3=\":443\"; ma=86400\n{\"createdAt\":\"2021-06-21T15:17:02.832Z\",\"name\":\"morpheus\",\"id\":\"447\",\"job\":\"leader\"}\n"},{"result":{"nanos":2182000,"millis":2.182,"status":"passed"},"step":{"line":27,"prefix":"Then","index":5,"text":"print response"},"stepLog":"20:47:03.613 [print] {\n  \"createdAt\": \"2021-06-21T15:17:02.832Z\",\n  \"name\": \"morpheus\",\n  \"id\": \"447\",\n  \"job\": \"leader\"\n}\n \n"},{"result":{"nanos":14600,"millis":0.0146,"status":"passed"},"step":{"line":28,"prefix":"And","index":6,"text":"status 201"}},{"result":{"nanos":2140500,"millis":2.1405,"status":"passed"},"step":{"line":29,"prefix":"And","index":7,"text":"match response.name == \"morpheus\""}},{"result":{"nanos":1312000,"millis":1.312,"status":"passed"},"step":{"line":30,"prefix":"And","index":8,"text":"match response.job == \"leader\""}}],"executorName":"pool-1-thread-5","line":21,"name":"create user using post and external json file","description":"","durationMillis":2193.3822,"startTime":1624288621203,"failed":false,"refId":"[3:21]","endTime":1624288623617,"exampleIndex":-1},{"sectionIndex":3,"stepResults":[{"result":{"nanos":270400,"millis":0.2704,"status":"passed"},"step":{"background":true,"line":4,"prefix":"Given","index":0,"text":"url 'https:\/\/reqres.in\/api'"},"stepLog":"20:47:03.358 karate.env system property was: null \n"},{"result":{"nanos":950300,"millis":0.9503,"status":"passed"},"step":{"line":33,"prefix":"*","index":0,"text":"def path = '\/users'"}},{"result":{"nanos":2120700,"millis":2.1207,"status":"passed"},"step":{"line":34,"prefix":"Given","index":1,"text":"path path"}},{"result":{"nanos":1403900,"millis":1.4039,"status":"passed"},"step":{"line":35,"prefix":"And","index":2,"text":"request {\"name\": \"morpheus\",\"job\": \"leader\"}"}},{"result":{"nanos":412563600,"millis":412.5636,"status":"passed"},"step":{"line":36,"prefix":"When","index":3,"text":"method post"},"stepLog":"20:47:03.367 request:\n1 > POST https:\/\/reqres.in\/api\/users\n1 > Content-Type: application\/json; charset=UTF-8\n1 > Content-Length: 34\n1 > Host: reqres.in\n1 > Connection: Keep-Alive\n1 > User-Agent: Apache-HttpClient\/4.5.13 (Java\/11.0.10)\n1 > Accept-Encoding: gzip,deflate\n{\"name\":\"morpheus\",\"job\":\"leader\"}\n\n20:47:03.774 response time in milliseconds: 406\n1 < 201\n1 < Date: Mon, 21 Jun 2021 15:17:03 GMT\n1 < Content-Type: application\/json; charset=utf-8\n1 < Content-Length: 84\n1 < Connection: keep-alive\n1 < X-Powered-By: Express\n1 < Access-Control-Allow-Origin: *\n1 < Etag: W\/\"54-mMCE3E7kfoAvrufUqfD4zrvdpro\"\n1 < Via: 1.1 vegur\n1 < CF-Cache-Status: DYNAMIC\n1 < cf-request-id: 0ad0be90d500000ea4d605e000000001\n1 < Expect-CT: max-age=604800, report-uri=\"https:\/\/report-uri.cloudflare.com\/cdn-cgi\/beacon\/expect-ct\"\n1 < Report-To: {\"endpoints\":[{\"url\":\"https:\\\/\\\/a.nel.cloudflare.com\\\/report\\\/v2?s=%2Fa%2FYpdejrMNHvtN6VmEQXZ1%2FtkX57AxhxXmsJ%2FHqiHsJh7ffr3LbFJHobf8A5qO4%2FhyTUtgmpJ52BL69JrENrQFq2gYaue8ki0Ap8HdhYPiamN2hx6a%2F\"}],\"group\":\"cf-nel\",\"max_age\":604800}\n1 < NEL: {\"report_to\":\"cf-nel\",\"max_age\":604800}\n1 < Server: cloudflare\n1 < CF-RAY: 662e33948e930ea4-BOM\n1 < alt-svc: h3-27=\":443\"; ma=86400, h3-28=\":443\"; ma=86400, h3-29=\":443\"; ma=86400, h3=\":443\"; ma=86400\n{\"createdAt\":\"2021-06-21T15:17:02.996Z\",\"name\":\"morpheus\",\"id\":\"429\",\"job\":\"leader\"}\n"},{"result":{"nanos":915600,"millis":0.9156,"status":"passed"},"step":{"line":37,"prefix":"Then","index":4,"text":"print response"},"stepLog":"20:47:03.778 [print] {\n  \"createdAt\": \"2021-06-21T15:17:02.996Z\",\n  \"name\": \"morpheus\",\n  \"id\": \"429\",\n  \"job\": \"leader\"\n}\n \n"},{"result":{"nanos":13100,"millis":0.0131,"status":"passed"},"step":{"line":38,"prefix":"And","index":5,"text":"status 201"}},{"result":{"nanos":805300,"millis":0.8053,"status":"passed"},"step":{"line":39,"prefix":"And","index":6,"text":"match response.name == \"morpheus\""}},{"result":{"nanos":2252500,"millis":2.2525,"status":"passed"},"step":{"line":40,"prefix":"And","index":7,"text":"match response.job == \"leader\""}}],"executorName":"pool-1-thread-4","line":32,"name":"create user using post and inline json payload","description":"","durationMillis":421.2954,"startTime":1624288623357,"failed":false,"refId":"[4:32]","endTime":1624288623782,"exampleIndex":-1},{"sectionIndex":4,"stepResults":[{"result":{"nanos":332700,"millis":0.3327,"status":"passed"},"step":{"background":true,"line":4,"prefix":"Given","index":0,"text":"url 'https:\/\/reqres.in\/api'"},"stepLog":"20:47:03.364 karate.env system property was: null \n"},{"result":{"nanos":1155000,"millis":1.155,"status":"passed"},"step":{"line":44,"prefix":"*","index":0,"text":"def path = '\/users'"}},{"result":{"nanos":1136900,"millis":1.1369,"status":"passed"},"step":{"line":45,"prefix":"Given","index":1,"text":"path path"}},{"result":{"nanos":134500,"millis":0.1345,"status":"passed"},"step":{"line":46,"prefix":"And","index":2,"text":"request {\"name\": \"morpheus\",\"job\": \"zion resident\"}"}},{"result":{"nanos":442959200,"millis":442.9592,"status":"passed"},"step":{"line":47,"prefix":"When","index":3,"text":"method put"},"stepLog":"20:47:03.371 request:\n1 > PUT https:\/\/reqres.in\/api\/users\n1 > Content-Type: application\/json; charset=UTF-8\n1 > Content-Length: 41\n1 > Host: reqres.in\n1 > Connection: Keep-Alive\n1 > User-Agent: Apache-HttpClient\/4.5.13 (Java\/11.0.10)\n1 > Accept-Encoding: gzip,deflate\n{\"name\":\"morpheus\",\"job\":\"zion resident\"}\n\n20:47:03.811 response time in milliseconds: 439\n1 < 200\n1 < Date: Mon, 21 Jun 2021 15:17:03 GMT\n1 < Content-Type: application\/json; charset=utf-8\n1 < Transfer-Encoding: chunked\n1 < Connection: keep-alive\n1 < X-Powered-By: Express\n1 < Access-Control-Allow-Origin: *\n1 < Etag: W\/\"50-RtGCcQ8KlilIG3nZGrAngquAOTQ\"\n1 < Via: 1.1 vegur\n1 < CF-Cache-Status: DYNAMIC\n1 < cf-request-id: 0ad0be90df00000dac57957000000001\n1 < Expect-CT: max-age=604800, report-uri=\"https:\/\/report-uri.cloudflare.com\/cdn-cgi\/beacon\/expect-ct\"\n1 < Report-To: {\"endpoints\":[{\"url\":\"https:\\\/\\\/a.nel.cloudflare.com\\\/report\\\/v2?s=Gi5cH6F0ZaNyf6lxkr5Uf4nstdWoP%2FqRPuIQkNfp2VbDHioiem7RwIX1ya9neKIsjK5A79RcR1cKtXs1GpPTQt2M4tSmqcnkRfWV%2FiwyXgz1PvOYae03\"}],\"group\":\"cf-nel\",\"max_age\":604800}\n1 < NEL: {\"report_to\":\"cf-nel\",\"max_age\":604800}\n1 < Vary: Accept-Encoding\n1 < Server: cloudflare\n1 < CF-RAY: 662e33949fca0dac-BOM\n1 < alt-svc: h3-27=\":443\"; ma=86400, h3-28=\":443\"; ma=86400, h3-29=\":443\"; ma=86400, h3=\":443\"; ma=86400\n{\"name\":\"morpheus\",\"job\":\"zion resident\",\"updatedAt\":\"2021-06-21T15:17:03.025Z\"}\n"},{"result":{"nanos":908300,"millis":0.9083,"status":"passed"},"step":{"line":48,"prefix":"Then","index":4,"text":"print response"},"stepLog":"20:47:03.813 [print] {\n  \"name\": \"morpheus\",\n  \"job\": \"zion resident\",\n  \"updatedAt\": \"2021-06-21T15:17:03.025Z\"\n}\n \n"},{"result":{"nanos":12900,"millis":0.0129,"status":"passed"},"step":{"line":49,"prefix":"And","index":5,"text":"status 200"}},{"result":{"nanos":814700,"millis":0.8147,"status":"passed"},"step":{"line":50,"prefix":"And","index":6,"text":"match response.name == \"morpheus\""}},{"result":{"nanos":803400,"millis":0.8034,"status":"passed"},"step":{"line":51,"prefix":"And","index":7,"text":"match response.job == \"zion resident\""}}],"executorName":"pool-1-thread-3","line":43,"name":"update user using put and inline json payload","description":"","durationMillis":448.2576,"startTime":1624288623362,"failed":false,"refId":"[5:43]","endTime":1624288623815,"exampleIndex":-1},{"sectionIndex":5,"stepResults":[{"result":{"nanos":230000,"millis":0.23,"status":"passed"},"step":{"background":true,"line":4,"prefix":"Given","index":0,"text":"url 'https:\/\/reqres.in\/api'"},"stepLog":"20:47:03.633 karate.env system property was: null \n"},{"result":{"nanos":345500,"millis":0.3455,"status":"passed"},"step":{"line":54,"prefix":"*","index":0,"text":"def path = '\/users'"}},{"result":{"nanos":504400,"millis":0.5044,"status":"passed"},"step":{"line":55,"prefix":"Given","index":1,"text":"path path"}},{"result":{"nanos":132700,"millis":0.1327,"status":"passed"},"step":{"line":56,"prefix":"And","index":2,"text":"request {\"name\": \"morpheus\",\"job\": \"zion resident\"}"}},{"result":{"nanos":438608100,"millis":438.6081,"status":"passed"},"step":{"line":57,"prefix":"When","index":3,"text":"method put"},"stepLog":"20:47:03.638 request:\n1 > PUT https:\/\/reqres.in\/api\/users\n1 > Content-Type: application\/json; charset=UTF-8\n1 > Content-Length: 41\n1 > Host: reqres.in\n1 > Connection: Keep-Alive\n1 > User-Agent: Apache-HttpClient\/4.5.13 (Java\/11.0.10)\n1 > Accept-Encoding: gzip,deflate\n{\"name\":\"morpheus\",\"job\":\"zion resident\"}\n\n20:47:04.074 response time in milliseconds: 435\n1 < 200\n1 < Date: Mon, 21 Jun 2021 15:17:03 GMT\n1 < Content-Type: application\/json; charset=utf-8\n1 < Transfer-Encoding: chunked\n1 < Connection: keep-alive\n1 < X-Powered-By: Express\n1 < Access-Control-Allow-Origin: *\n1 < Etag: W\/\"50-7yhC6vEDu5psE9y1\/dr5NSrkXsk\"\n1 < Via: 1.1 vegur\n1 < CF-Cache-Status: DYNAMIC\n1 < cf-request-id: 0ad0be91da00002e319231f000000001\n1 < Expect-CT: max-age=604800, report-uri=\"https:\/\/report-uri.cloudflare.com\/cdn-cgi\/beacon\/expect-ct\"\n1 < Report-To: {\"endpoints\":[{\"url\":\"https:\\\/\\\/a.nel.cloudflare.com\\\/report\\\/v2?s=yruT7bKrBy%2FnbnHhfs7sEcLkfTarfpf0smnjKGSX6sVwZiGEuD6eIs374owz19%2BhjNgt1T9I4m8wAZskWOMLlY028Ivhg3aNKe82SuwJJw2u2Pp%2FRTg9\"}],\"group\":\"cf-nel\",\"max_age\":604800}\n1 < NEL: {\"report_to\":\"cf-nel\",\"max_age\":604800}\n1 < Vary: Accept-Encoding\n1 < Server: cloudflare\n1 < CF-RAY: 662e33962c4f2e31-BOM\n1 < alt-svc: h3-27=\":443\"; ma=86400, h3-28=\":443\"; ma=86400, h3-29=\":443\"; ma=86400, h3=\":443\"; ma=86400\n{\"name\":\"morpheus\",\"job\":\"zion resident\",\"updatedAt\":\"2021-06-21T15:17:03.274Z\"}\n"},{"result":{"nanos":1695900,"millis":1.6959,"status":"passed"},"step":{"line":58,"prefix":"Then","index":4,"text":"print response"},"stepLog":"20:47:04.077 [print] {\n  \"name\": \"morpheus\",\n  \"job\": \"zion resident\",\n  \"updatedAt\": \"2021-06-21T15:17:03.274Z\"\n}\n \n"},{"result":{"nanos":12600,"millis":0.0126,"status":"passed"},"step":{"line":59,"prefix":"And","index":5,"text":"status 200"}},{"result":{"nanos":780800,"millis":0.7808,"status":"passed"},"step":{"line":60,"prefix":"And","index":6,"text":"match response.name == \"morpheus\""}},{"result":{"nanos":1164000,"millis":1.164,"status":"passed"},"step":{"line":61,"prefix":"And","index":7,"text":"match response.job == \"zion resident\""}}],"executorName":"pool-1-thread-5","line":53,"name":"update user using patch and inline json payload","description":"","durationMillis":443.474,"startTime":1624288623632,"failed":false,"refId":"[6:53]","endTime":1624288624079,"exampleIndex":-1},{"sectionIndex":6,"stepResults":[{"result":{"nanos":249100,"millis":0.2491,"status":"passed"},"step":{"background":true,"line":4,"prefix":"Given","index":0,"text":"url 'https:\/\/reqres.in\/api'"},"stepLog":"20:47:03.790 karate.env system property was: null \n"},{"result":{"nanos":329800,"millis":0.3298,"status":"passed"},"step":{"line":64,"prefix":"*","index":0,"text":"def path = '\/users'"}},{"result":{"nanos":317800,"millis":0.3178,"status":"passed"},"step":{"line":65,"prefix":"*","index":1,"text":"def payload = {\"name\": \"morpheus\",\"job\": \"zion resident\"}"}},{"result":{"nanos":370500,"millis":0.3705,"status":"passed"},"step":{"line":66,"prefix":"Given","index":2,"text":"path path"}},{"result":{"nanos":13100,"millis":0.0131,"status":"passed"},"step":{"line":67,"prefix":"And","index":3,"text":"request payload"}},{"result":{"nanos":429072100,"millis":429.0721,"status":"passed"},"step":{"line":68,"prefix":"When","index":4,"text":"method put"},"stepLog":"20:47:03.795 request:\n1 > PUT https:\/\/reqres.in\/api\/users\n1 > Content-Type: application\/json; charset=UTF-8\n1 > Content-Length: 41\n1 > Host: reqres.in\n1 > Connection: Keep-Alive\n1 > User-Agent: Apache-HttpClient\/4.5.13 (Java\/11.0.10)\n1 > Accept-Encoding: gzip,deflate\n{\"name\":\"morpheus\",\"job\":\"zion resident\"}\n\n20:47:04.221 response time in milliseconds: 425\n1 < 200\n1 < Date: Mon, 21 Jun 2021 15:17:03 GMT\n1 < Content-Type: application\/json; charset=utf-8\n1 < Transfer-Encoding: chunked\n1 < Connection: keep-alive\n1 < X-Powered-By: Express\n1 < Access-Control-Allow-Origin: *\n1 < Etag: W\/\"50-PIglUuybf74umE8D5ib2gcYFToA\"\n1 < Via: 1.1 vegur\n1 < CF-Cache-Status: DYNAMIC\n1 < cf-request-id: 0ad0be928100000ee087800000000001\n1 < Expect-CT: max-age=604800, report-uri=\"https:\/\/report-uri.cloudflare.com\/cdn-cgi\/beacon\/expect-ct\"\n1 < Report-To: {\"endpoints\":[{\"url\":\"https:\\\/\\\/a.nel.cloudflare.com\\\/report\\\/v2?s=nWWcHfAmO1qH21K21ACDPYY7v%2FaeSeiE3ma%2Fel%2FMNNgCkaqt1QchUiX0sCoUJFnaUXBd0018%2BOKzQzXR9VbnRW0R0vfwRS5kcH8LkunrkKMN5N%2FIOoWZ\"}],\"group\":\"cf-nel\",\"max_age\":604800}\n1 < NEL: {\"report_to\":\"cf-nel\",\"max_age\":604800}\n1 < Vary: Accept-Encoding\n1 < Server: cloudflare\n1 < CF-RAY: 662e33973e2a0ee0-BOM\n1 < alt-svc: h3-27=\":443\"; ma=86400, h3-28=\":443\"; ma=86400, h3-29=\":443\"; ma=86400, h3=\":443\"; ma=86400\n{\"name\":\"morpheus\",\"job\":\"zion resident\",\"updatedAt\":\"2021-06-21T15:17:03.434Z\"}\n"},{"result":{"nanos":1949200,"millis":1.9492,"status":"passed"},"step":{"line":69,"prefix":"Then","index":5,"text":"print response"},"stepLog":"20:47:04.224 [print] {\n  \"name\": \"morpheus\",\n  \"job\": \"zion resident\",\n  \"updatedAt\": \"2021-06-21T15:17:03.434Z\"\n}\n \n"},{"result":{"nanos":16800,"millis":0.0168,"status":"passed"},"step":{"line":70,"prefix":"And","index":6,"text":"status 200"}},{"result":{"nanos":938400,"millis":0.9384,"status":"passed"},"step":{"line":71,"prefix":"And","index":7,"text":"match response.name == \"morpheus\""}},{"result":{"nanos":1157300,"millis":1.1573,"status":"passed"},"step":{"line":72,"prefix":"And","index":8,"text":"match response.job == \"zion resident\""}}],"executorName":"pool-1-thread-4","line":63,"name":"update user using patch and passing payload as a variable","description":"","durationMillis":434.4141,"startTime":1624288623789,"failed":false,"refId":"[7:63]","endTime":1624288624227,"exampleIndex":-1},{"sectionIndex":7,"stepResults":[{"result":{"nanos":211500,"millis":0.2115,"status":"passed"},"step":{"background":true,"line":4,"prefix":"Given","index":0,"text":"url 'https:\/\/reqres.in\/api'"},"stepLog":"20:47:03.824 karate.env system property was: null \n"},{"result":{"nanos":900900,"millis":0.9009,"status":"passed"},"step":{"line":76,"prefix":"*","index":0,"text":"def path = '\/users\/2'"}},{"result":{"nanos":458700,"millis":0.4587,"status":"passed"},"step":{"line":77,"prefix":"Given","index":1,"text":"path path"}},{"result":{"nanos":412969100,"millis":412.9691,"status":"passed"},"step":{"line":78,"prefix":"When","index":2,"text":"method delete"},"stepLog":"20:47:03.829 request:\n1 > DELETE https:\/\/reqres.in\/api\/users\/2\n1 > Host: reqres.in\n1 > Connection: Keep-Alive\n1 > User-Agent: Apache-HttpClient\/4.5.13 (Java\/11.0.10)\n1 > Accept-Encoding: gzip,deflate\n\n\n20:47:04.239 response time in milliseconds: 409\n1 < 204\n1 < Date: Mon, 21 Jun 2021 15:17:03 GMT\n1 < Content-Length: 0\n1 < Connection: keep-alive\n1 < X-Powered-By: Express\n1 < Access-Control-Allow-Origin: *\n1 < Etag: W\/\"2-vyGp6PvFo4RvsFtPoIWeCReyIC8\"\n1 < Via: 1.1 vegur\n1 < CF-Cache-Status: DYNAMIC\n1 < cf-request-id: 0ad0be92a60000319384b44000000001\n1 < Expect-CT: max-age=604800, report-uri=\"https:\/\/report-uri.cloudflare.com\/cdn-cgi\/beacon\/expect-ct\"\n1 < Report-To: {\"endpoints\":[{\"url\":\"https:\\\/\\\/a.nel.cloudflare.com\\\/report\\\/v2?s=ynOv%2FBRj37zUNi%2FV0Mg5cPKo%2F648kicNUrRBl8pMMQxARTiJs2%2F7ztsMozsk76HeSmGDV8bbkcc8EtYHXLEW%2F3bqr7zQD2tMlLrZhAdOTEiBEuNn4MHs\"}],\"group\":\"cf-nel\",\"max_age\":604800}\n1 < NEL: {\"report_to\":\"cf-nel\",\"max_age\":604800}\n1 < Server: cloudflare\n1 < CF-RAY: 662e339769463193-BOM\n1 < alt-svc: h3-27=\":443\"; ma=86400, h3-28=\":443\"; ma=86400, h3-29=\":443\"; ma=86400, h3=\":443\"; ma=86400\n\n"},{"result":{"nanos":1829400,"millis":1.8294,"status":"passed"},"step":{"line":79,"prefix":"Then","index":3,"text":"print response"},"stepLog":"20:47:04.242 [print]  \n"},{"result":{"nanos":14200,"millis":0.0142,"status":"passed"},"step":{"line":80,"prefix":"And","index":4,"text":"status 204"}}],"executorName":"pool-1-thread-3","line":75,"name":"delete user using delete http method","description":"","durationMillis":416.3838,"startTime":1624288623823,"failed":false,"refId":"[8:75]","endTime":1624288624242,"exampleIndex":-1}],"callDepth":0,"name":"reqres api test cases","description":"","resultDate":"2021-06-21 08:47:05 PM","durationMillis":8204.5815,"passedCount":8}