{"failedCount":1,"prefixedPath":"src\/test\/java\/examples\/reqres\/reqres.feature","packageQualifiedName":"src.test.java.examples.reqres.reqres","loopIndex":-1,"relativePath":"src\/test\/java\/examples\/reqres\/reqres.feature","scenarioResults":[{"sectionIndex":12,"stepResults":[{"result":{"nanos":71500,"millis":0.0715,"status":"passed"},"step":{"background":true,"line":4,"prefix":"Given","index":0,"text":"url base_url"},"stepLog":"10:28:44.743 karate.env system property was: null \n"},{"result":{"nanos":31627100,"errorMessage":">>>> js failed:\n01: https:\/\/reqres.in\/api\/users?page=2\n<<<<\norg.graalvm.polyglot.PolyglotException: SyntaxError: Unnamed:1:34 Expected ; but found eof\r\nhttps:\/\/reqres.in\/api\/users?page=2\r\n                                  ^\n\n- org.graalvm.polyglot.Context.eval(Context.java:373)\n- com.intuit.karate.graal.JsEngine.evalForValue(JsEngine.java:124)\n- com.intuit.karate.graal.JsEngine.eval(JsEngine.java:120)\n- com.intuit.karate.core.ScenarioEngine.evalJs(ScenarioEngine.java:1246)\n- com.intuit.karate.core.ScenarioEngine.evalKarateExpression(ScenarioEngine.java:2202)\n- com.intuit.karate.core.ScenarioEngine.url(ScenarioEngine.java:360)\n- com.intuit.karate.ScenarioActions.url(ScenarioActions.java:76)\n\nsrc\/test\/java\/examples\/reqres\/reqres.feature:173","millis":31.6271,"status":"failed"},"step":{"line":173,"prefix":"Given","index":0,"text":"url https:\/\/reqres.in\/api\/users?page=2"},"stepLog":"10:28:44.824 src\/test\/java\/examples\/reqres\/reqres.feature:173\nGiven url https:\/\/reqres.in\/api\/users?page=2\n>>>> js failed:\n01: https:\/\/reqres.in\/api\/users?page=2\n<<<<\norg.graalvm.polyglot.PolyglotException: SyntaxError: Unnamed:1:34 Expected ; but found eof\r\nhttps:\/\/reqres.in\/api\/users?page=2\r\n                                  ^\n\n- org.graalvm.polyglot.Context.eval(Context.java:373)\n- com.intuit.karate.graal.JsEngine.evalForValue(JsEngine.java:124)\n- com.intuit.karate.graal.JsEngine.eval(JsEngine.java:120)\n- com.intuit.karate.core.ScenarioEngine.evalJs(ScenarioEngine.java:1246)\n- com.intuit.karate.core.ScenarioEngine.evalKarateExpression(ScenarioEngine.java:2202)\n- com.intuit.karate.core.ScenarioEngine.url(ScenarioEngine.java:360)\n- com.intuit.karate.ScenarioActions.url(ScenarioActions.java:76)\n\nsrc\/test\/java\/examples\/reqres\/reqres.feature:173\n"},{"result":{"nanos":0,"millis":0.0,"status":"skipped"},"step":{"line":174,"prefix":"When","index":1,"text":"method get"}},{"result":{"nanos":0,"millis":0.0,"status":"skipped"},"step":{"line":175,"prefix":"Then","index":2,"text":"status 200"}},{"result":{"nanos":0,"millis":0.0,"status":"skipped"},"step":{"line":176,"prefix":"Then","index":3,"text":"print response"}},{"result":{"nanos":0,"millis":0.0,"status":"skipped"},"step":{"line":177,"prefix":"And","index":4,"text":"match $ =={\"page\": 2,\"per_page\": 6,\"total\": 12,\"total_pages\": 2,\"data\": [{\"id\": 7,\"email\": \"michael.lawson@reqres.in\",\"first_name\": \"Michael\",\"last_name\": \"Lawson\",\"avatar\": \"https:\/\/reqres.in\/img\/faces\/7-image.jpg\"},{\"id\": 8,\"email\": \"lindsay.ferguson@reqres.in\",\"first_name\": \"Lindsay\",\"last_name\": \"Ferguson\",\"avatar\": \"https:\/\/reqres.in\/img\/faces\/8-image.jpg\"},{\"id\": 9,\"email\": \"tobias.funke@reqres.in\",\"first_name\": \"Tobias\",\"last_name\": \"Funke\",\"avatar\": \"https:\/\/reqres.in\/img\/faces\/9-image.jpg\"},{\"id\": 10,\"email\": \"byron.fields@reqres.in\",\"first_name\": \"Byron\",\"last_name\": \"Fields\",\"avatar\": \"https:\/\/reqres.in\/img\/faces\/10-image.jpg\"},{\"id\": 11,\"email\": \"george.edwards@reqres.in\",\"first_name\": \"George\",\"last_name\": \"Edwards\",\"avatar\": \"https:\/\/reqres.in\/img\/faces\/11-image.jpg\"},{\"id\": 12,\"email\": \"rachel.howell@reqres.in\",\"first_name\": \"Rachel\",\"last_name\": \"Howell\",\"avatar\": \"https:\/\/reqres.in\/img\/faces\/12-image.jpg\"}],\"support\": {\"url\": \"https:\/\/reqres.in\/#support-heading\",\"text\": \"To keep ReqRes free, contributions towards server costs are appreciated!\"}}"}}],"line":172,"description":"","durationMillis":31.6986,"failed":true,"error":">>>> js failed:\n01: https:\/\/reqres.in\/api\/users?page=2\n<<<<\norg.graalvm.polyglot.PolyglotException: SyntaxError: Unnamed:1:34 Expected ; but found eof\r\nhttps:\/\/reqres.in\/api\/users?page=2\r\n                                  ^\n\n- org.graalvm.polyglot.Context.eval(Context.java:373)\n- com.intuit.karate.graal.JsEngine.evalForValue(JsEngine.java:124)\n- com.intuit.karate.graal.JsEngine.eval(JsEngine.java:120)\n- com.intuit.karate.core.ScenarioEngine.evalJs(ScenarioEngine.java:1246)\n- com.intuit.karate.core.ScenarioEngine.evalKarateExpression(ScenarioEngine.java:2202)\n- com.intuit.karate.core.ScenarioEngine.url(ScenarioEngine.java:360)\n- com.intuit.karate.ScenarioActions.url(ScenarioActions.java:76)\n\nsrc\/test\/java\/examples\/reqres\/reqres.feature:173","executorName":"main","name":"list users get request error for","startTime":1633928324440,"refId":"[13:172]","endTime":1633928324824,"exampleIndex":-1}],"callDepth":0,"name":"reqres api test cases","description":"","resultDate":"2021-10-11 10:28:44 AM","durationMillis":31.6986,"passedCount":0}